Gold Production the World
…
```
## 
## ℹ Use `spec()` to retrieve the full column specification for this data.
## ℹ Specify the column types or set `show_col_types = FALSE` to quiet this message.
```

```r
print(Gold_Mining_Production)
```

```
## # A tibble: 44 × 12
##    Country `2010` `2011` `2012` `2013` `2014` `2015` `2016` `2017` `2018` `2019`
##    <chr>    <dbl>  <dbl>  <dbl>  <dbl>  <dbl>  <dbl>  <dbl>  <dbl>  <dbl>  <dbl>
##  1 United…  231.   234.   235.   230.   210    217.   229.   236.   225.   200. 
##  2 Canada   102.   102    106.   131.   151.   158.   163.   171.   189.   183. 
##  3 Mexico    78.7   94.4  108.   107.   113.   131.   131.   120.   118.   109  
##  4 Peru     185.   184.   190.   182.   171.   170.   166    167.   163.   143. 
##  5 Brazil    71.5   77.7   80.2   89.3   90.4   95.4   95.9   95.4   96.7  100. 
##  6 Argent…   63.9   59     54.2   49.7   60     63.9   58     61.4   58.3   52.5
##  7 Colomb…   43.6   45.9   56.2   46     47.9   49.6   53.2   53.2   43.9   45.5
##  8 Chile     39.5   45.1   49.9   51.3   46     42.5   40.7   35.8   36.5   37.8
##  9 Domini…    0.1    0.5    4.2   26.6   36.2   31.2   38     35.3   31.7   31.8
## 10 Venezu…   24.9   25.5   21     22.8   22.7   22.6   23     23     26     27.8
## # … with 34 more rows, and 1 more variable: 2020 <dbl>
```
…
---
# Country by Country Data 

Here we used Pivot longer to view country by country data. 

```r
Gold_Production_Total_longer <- Gold_Production_Total %>%
  pivot_longer(c("2010", "2011", "2012", "2013", "2014", "2015", "2016", "2017", "2018", "2019", "2020"), names_to = "year", values_to = "tonnes")

print(Gold_Production_Total_longer)
```

```
## # A tibble: 110 × 4
##    Country total year  tonnes
##    <chr>   <dbl> <chr>  <dbl>
##  1 China   4545. 2010    351.
##  2 China   4545. 2011    371.
##  3 China   4545. 2012    413.
##  4 China   4545. 2013    438.
##  5 China   4545. 2014    462 
##  6 China   4545. 2015    460.
##  7 China   4545. 2016    464.
##  8 China   4545. 2017    429.
##  9 China   4545. 2018    404.
## 10 China   4545. 2019    383.
## # … with 100 more rows
```
…
